…
``` r
permits_raws
```

    ## # A tibble: 92,945 x 14
    ##    area  date  f1units f1change f1value f1valchange f24units f24change
    ##    <chr> <chr>   <dbl> <chr>      <dbl> <chr>          <dbl> <chr>    
    ##  1 Abil… 01/1…      24 null       67900 null               4 null     
    ##  2 Abil… 02/1…      39 null       75900 null               0 null     
    ##  3 Abil… 03/1…      38 null       78000 null               4 null     
    ##  4 Abil… 04/1…      29 null       66500 null               0 null     
    ##  5 Abil… 05/1…      29 null       77600 null               0 null     
    ##  6 Abil… 06/1…      42 null       66500 null               0 null     
    ##  7 Abil… 07/1…      48 null       67600 null              18 null     
    ##  8 Abil… 08/1…      67 null       69000 null               0 null     
    ##  9 Abil… 09/1…      53 null       60800 null               2 null     
    ## 10 Abil… 10/1…      80 null       73000 null               2 null     
    ## # … with 92,935 more rows, and 6 more variables: f24value <dbl>,
    ## #   f24valchange <chr>, f5units <dbl>, f5change <chr>, f5value <dbl>,
    ## #   f5valchange <chr>
…
